Autoregressive Integrated Moving Average | Obryan Poyser
…
Identify dependence orders

Parameter estimation

Diagnostic

Model choice

In this applied case we are going to apply Autoregressive Integrated Moving Average Models (ARIMA) to forecast the number of foreign arrivals in Costa Rica by any via.

Data

In this study we consider the analysis of monthly tourist’s arrivals from January 2005 to April 2017, thus we are dealing with \(n=148\) observations. The information is provided by the statistics department of the Costarrican Institute of Tourism. The data is recorded in a pdf file, in which the tables show the amount of tourist that arrive in Costa Rica recorded by country. Since we deal with many countries, and each series describes an idiosyncratic trend and seasonal components, it has been decided to limit the analysis to the United States tourist.

## # A tibble: 740 x 15
##    year  country region january february march april   may  june  july
##    <chr> <chr>   <chr>    <dbl>    <dbl> <dbl> <dbl> <dbl> <dbl> <dbl>
##  1 05    otros_… africa     100       90    99   106    95    70    91
##  2 05    belice  ameri…      74       36    48    35    53    68    93
##  3 05    el_sal… ameri…    3915     2605  4017  3151  3381  3208  4143
##  4 05    guatem… ameri…    3041     2514  3094  2851  3088  4261  3085
##  5 05    hondur… ameri…    3004     1637  2191  2267  1804  2295  2497
##  6 05    nicara… ameri…   41208    17106 19461 15912 15630 16634 18832
##  7 05    panama  ameri…    8098     6472  5660  4243  5154  5126  6029
##  8 05    canada  ameri…   14740    14261 13224  7184  3973  3017  4192
##  9 14    china   asia       452      550   811   629   631   582   610
## 10 05    mexico  ameri…    3155     3772  4939  3365  3769  3976  6973
## # … with 730 more rows, and 5 more variables: august <dbl>,
## #   september <dbl>, october <dbl>, november <dbl>, december <dbl>
…
tou_usa_xts=xts::xts(x = tou_usa$arrivals, order.by = tou_usa$date) # Sometimes is useful to deal
                                                                   # with xts formats
tou_usa_ts=ts(data = tou_usa$arrivals, start = c(2005, 1), frequency = 12)     # and ts

tou_usa

## # A tibble: 148 x 2
##    date       arrivals
##    <date>        <dbl>
##  1 2005-01-28    66095
##  2 2005-02-28    71945
##  3 2005-03-28    90193
##  4 2005-04-28    63650
##  5 2005-05-28    60659
##  6 2005-06-28    75428
##  7 2005-07-28    80576
##  8 2005-08-28    57000
##  9 2005-09-28    34519
## 10 2005-10-28    38096
## # … with 138 more rows
…
